<svg version="1.1" xmlns="http://www.w3.org/2000/svg" xmlns:xlink="http://www.w3.org/1999/xlink" x="0px" y="0px" viewBox="0 0 27.5 19.5" enable-background="new 0 0 27.5 19.5" xml:space="preserve" class="wistia_vulcan_svg_icon wistia_vulcan_svg_icon_fullscreen" style="">
  <g>
    <polyline fill="none" stroke="#000000" stroke-width="2" stroke-linecap="round" stroke-linejoin="round" stroke-miterlimit="10" points="26.8,5.1 26.8,0.8 20.5,0.8"/>
    <polyline fill="none" stroke="#000000" stroke-width="2" stroke-linecap="round" stroke-linejoin="round" stroke-miterlimit="10" points="7,0.8 0.7,0.8 0.7,5.1"/>
    <polyline fill="none" stroke="#000000" stroke-width="2" stroke-linecap="round" stroke-linejoin="round" stroke-miterlimit="10" points="20.5,18.8 26.8,18.8 26.8,14.4&#9;"/>
    <polyline fill="none" stroke="#000000" stroke-width="2" stroke-linecap="round" stroke-linejoin="round" stroke-miterlimit="10" points="0.7,14.4 0.7,18.8 7,18.8"/>
  </g>
  <rect x="5.8" y="4.8" fill="none" stroke="#000000" stroke-width="2" stroke-linecap="round" stroke-linejoin="round" stroke-miterlimit="10" width="16" height="10"/>
</svg>